;############################################################################################################
;lst Version=V01.00.00.04
;Starting with ; doesn't do anything. use it as comments
;Starting with # specifies registry path and it needs ## for KeyValue of which will be used as a path instead.
;Starting with @ specifies registry path which will to be downloaded by itself as a .reg file
;############################################################################################################
[EP]
;BRM EP Log
#HKLM\\SOFTWARE\\ATM\\SPConfig\\TXTLog##BRMLogFilePath
;BRM EP Log(backup)
#HKLM\\SOFTWARE\\ATM\\SPConfig\\TXTLog##BackUpPath
;BRM BC Log
#HKLM\\SOFTWARE\\ATM\\DevInfo\\BRM\\COMMON##LogDir
;BRM24 EP Log
#HKLM\\SOFTWARE\\ATM\\SPConfig\\TXTLog\\BRM24##LogFilePath
;BRM30 EP Log
#HKLM\\SOFTWARE\\ATM\\SPConfig\\TXTLog\\BRM30##LogFilePath
;CSM3x EP Log
#HKLM\\SOFTWARE\\ATM\\SPConfig\\TXTLog\\nh CSM3x##LogFilePath
;CSM3x EP Log(backup)
#HKLM\\SOFTWARE\\ATM\\SPConfig\\TXTLog\\nh CSM3x##BackUpPath
;CSM50 EP Log
#HKLM\\SOFTWARE\\ATM\\SPConfig\\TXTLog\\CSM50##LogFilePath
;CSM50 BC Log
#HKLM\\SOFTWARE\\ATM\\SPConfig\\TXTLog\\REC50##LogFilePath
;CCIM EP Log
#HKLM\\SOFTWARE\\ATM\\SPConfig\\TXTLog\\nh CCIM##LogFilePath
;CCIM EP Log(backup)
#HKLM\\SOFTWARE\\ATM\\SPConfig\\TXTLog\\nh CCIM##BackupPath
;CCIM Reject & BC Log
#HKLM\\SOFTWARE\\ATM\\DevInfo\\CCIM\\Log##LogDir
;CCIM Reject & BC Log(backup)
#HKLM\\SOFTWARE\\ATM\\SPConfig\\TXTLog\\BCU30##BackupPath
;CCIM BC Log
#HKLM\\SOFTWARE\\ATM\\SPConfig\\TXTLog\\BCU30##LogFilePath
;CDM EP & BC Log
#HKLM\\SOFTWARE\\ATM\\SPConfig\\TXTLog##LogFilePath

c:\\Common\\logs\\NHTrace
c:\\Program Files\\Nextware\\BACKUPNHY
c:\\Program Files\\Nextware\\Exe
c:\\Program Files\\NextWare\\Trace
c:\\Program Files\\Nextware\\Trace\\EPLOG
c:\\Program Files\\Nextware\\Trace\\EPLOG\\BC_REJECT
c:\\Program Files\\NextWare\\INI\\COD
c:\\Program Files\\NextWare\\INI\\CDM
c:\\Program Files\\Nautilus Hyosung\\Trace
c:\\Trace

c:\\Hyosung\\Nextware\\BACKUPNHY
c:\\Hyosung\\Nextware\\Exe
c:\\Hyosung\\NextWare\\Trace
c:\\Hyosung\\Nextware\\Trace\\EPLOG
c:\\Hyosung\\Nextware\\Trace\\EPLOG\\BC_REJECT
c:\\Hyosung\\NextWare\\INI\\COD
c:\\Hyosung\\NextWare\\INI\\CDM
c:\\Hyosung\\Nautilus Hyosung\\Trace

d:\\Trace
d:\\Trace\\CDM
d:\\Trace\\SPR
d:\\Trace_BRM

;FwLogSave Logs
c:\\FWLogSave

[SP]
+CDM_|CCIM_|CCIM-MIXED_|NHSIU4PNC_|IDC_|PINPAD_|SPR_|CSM_|SNMP_|XFS_|BRM_|JPR_|BSTrace

c:\\NHtrace
d:\\Logs\\NHTrace
d:\\Trace\\Logs\\Nhtrace

;SP nwlog
#HKLM\\SOFTWARE\\NextWare##TraceDirectory
C:\\Nextware\\Trace

;SP TextLog
#HKLM\\SOFTWARE\\ATM\\SPConfig\\TXTLog##LogFilePath

[AP]
+.log|.txt|.nwlog

; AP Log 
#HKLM\\SOFTWARE\\ATM\\APP\\DEFAULTSETTING##TRACEDIR
d:\\TRACE

; MP1 Log
D:\\Program files\\Hyosung\\LOGS\\DEBUG
c:\\Nhtrace\\moniplus2slog
c:\\moniplus2slog
d:\\MoniPlus2Slog
D:\\MoniPlus2SLog\\Core

[VDM]
#HKLM\\SOFTWARE\\XFS\\SERVICE_PROVIDERS\\NHVendorDependentMode##ExeInfo
c:\\program files\\nextware\\exe\\nhvdm\\log

c:\\Hyosung\\nextware\\exe\\nhvdm\\log

[WINEVT]
;windows Event Logs registry
#HKLM\\System\\CurrentControlSet\\Services\\EventLog\\System##File
c:\\Windows\\System32\\winevt
c:\\Windows\\System32\\winevt\\Logs
;win64bit
c:\\Windows\\Sysnative\\winevt

[REG]
@HKU\\.DEFAULT\\XFS
@HKLM\\SOFTWARE\\ATM
@HKLM\\SOFTWARE\\NEXTWARE
@HKLM\\SOFTWARE\\XFS
@HKLM\\SOFTWARE\\NH_Installer\\BasicMedia

[DRIVERINSIDE]
c:\\DriverInside

[WATCHDOG]
#HKLM\\SOFTWARE\\ATM\\DEVINFO\\WatchDog##TracePath
C:\\Nextware30
C:\\trace

[EJ]
c:\\EJournal
d:\\EJournal